{
  "ids": [
    [
      "sorghum",
      "wheat",
      "soybeans",
      "barley",
      "maize",
      "lupin"
    ],
    [
      "soybean_meal"
    ],
    [
      "feed_N_weaner",
      "feed_N_pig",
      "feed_S_piglet",
      "feed_S_weaner",
      "feed_S_pig"
    ],
    [
      "weaner_N",
      "piglet_S"
    ],
    [
      "pig_N",
      "weaner_S"
    ],
    [
      "pig_S",
      "pig_meat_N"
    ],
    [
      "pig_meat_S"
    ]
  ]
}
