{
  "nodes": [
    {
      "type": "Cycle",
      "completeness": {
        "type": "Completeness",
        "animalFeed": true,
        "cropResidue": false,
        "electricityFuel": true,
        "excreta": true,
        "fertiliser": true,
        "liveAnimals": false,
        "material": true,
        "operations": true,
        "other": false,
        "pesticidesAntibiotics": true,
        "products": true,
        "soilAmendments": true,
        "transport": false,
        "waste": false,
        "water": true
      },
      "defaultSource": {
        "type": "Source",
        "id": "1"
      },
      "dataPrivate": false,
      "endDate": "2014",
      "cycleDuration": 365,
      "defaultMethodClassification": "modelled",
      "functionalUnit": "1 ha",
      "products": [
        {
          "type": "Product",
          "term": {
            "@type": "Term",
            "@id": "carrotRoot",
            "name": "Carrot, root",
            "termType": "crop",
            "units": "kg"
          },
          "economicValueShare": 100,
          "properties": [
            {
              "type": "Property",
              "term": {
                "@type": "Term",
                "@id": "dryMatter",
                "name": "Dry matter",
                "termType": "property",
                "units": "%"
              },
              "value": 10
            }
          ],
          "value": [
            10
          ],
          "primary": true
        }
      ],
      "inputs": [
        {
          "type": "Input",
          "term": {
            "@type": "Term",
            "@id": "organicPhosphorusFertiliserUnspecifiedKgP2O5",
            "name": "Organic Phosphorus fertiliser, unspecified (kg P2O5)",
            "termType": "organicFertiliser",
            "units": "kg P2O5"
          },
          "value": [
            10
          ]
        },
        {
          "type": "Input",
          "term": {
            "@type": "Term",
            "@id": "lime",
            "name": "Lime",
            "termType": "soilAmendment",
            "units": "kg CaCO3"
          },
          "value": [
            10
          ]
        },
        {
          "type": "Input",
          "term": {
            "@type": "Term",
            "@id": "dolomiticLime",
            "name": "Dolomitic lime",
            "termType": "soilAmendment",
            "units": "kg CaMg(CO3)2"
          },
          "value": [
            10
          ]
        },
        {
          "type": "Input",
          "term": {
            "@type": "Term",
            "@id": "inorganicPhosphorusFertiliserUnspecifiedKgP2O5",
            "name": "Inorganic Phosphorus fertiliser, unspecified (kg P2O5)",
            "termType": "inorganicFertiliser",
            "units": "kg P2O5"
          },
          "value": [
            10
          ]
        },
        {
          "type": "Input",
          "term": {
            "@type": "Term",
            "@id": "organicPotassiumFertiliserUnspecifiedKgK2O",
            "name": "Organic Potassium fertiliser, unspecified (kg K2O)",
            "termType": "organicFertiliser",
            "units": "kg K2O"
          },
          "value": [
            10
          ]
        },
        {
          "type": "Input",
          "term": {
            "@type": "Term",
            "@id": "inorganicPotassiumFertiliserUnspecifiedKgK2O",
            "name": "Inorganic Potassium fertiliser, unspecified (kg K2O)",
            "termType": "inorganicFertiliser",
            "units": "kg K2O"
          },
          "value": [
            10
          ]
        },
        {
          "type": "Input",
          "term": {
            "@type": "Term",
            "@id": "diesel",
            "name": "Diesel",
            "termType": "fuel",
            "units": "kg",
            "defaultProperties": [
              {
                "term": {
                  "@type": "Term",
                  "name": "Density",
                  "termType": "property",
                  "@id": "density",
                  "units": "kg / m3"
                },
                "value": 10,
                "@type": "Property"
              },
              {
                "term": {
                  "@type": "Term",
                  "name": "Energy content (lower heating value)",
                  "termType": "property",
                  "@id": "energyContentLowerHeatingValue",
                  "units": "MJ / kg"
                },
                "value": 10,
                "@type": "Property"
              },
              {
                "term": {
                  "@type": "Term",
                  "name": "Energy content (higher heating value)",
                  "termType": "property",
                  "@id": "energyContentHigherHeatingValue",
                  "units": "MJ / kg"
                },
                "value": 10,
                "@type": "Property"
              }
            ]
          },
          "value": [
            10
          ]
        },
        {
          "type": "Input",
          "term": {
            "@type": "Term",
            "@id": "plasticTypeUnspecified",
            "name": "Plastic, type unspecified",
            "termType": "material",
            "units": "kg"
          },
          "value": [
            10
          ]
        },
        {
          "type": "Input",
          "term": {
            "@type": "Term",
            "@id": "waterSourceUnspecified",
            "name": "Water, source unspecified",
            "termType": "water",
            "units": "m3"
          },
          "value": [
            10
          ]
        },
        {
          "type": "Input",
          "term": {
            "@type": "Term",
            "@id": "electricityMarketMix",
            "name": "Electricity, market mix",
            "termType": "electricity",
            "units": "kWh"
          },
          "value": [
            10
          ],
          "operation": {
            "@type": "Term",
            "@id": "irrigating",
            "name": "Irrigating",
            "termType": "operation",
            "units": "hour"
          }
        },
        {
          "type": "Input",
          "term": {
            "@type": "Term",
            "@id": "diesel",
            "name": "Diesel",
            "termType": "fuel",
            "units": "kg",
            "defaultProperties": [
              {
                "term": {
                  "@type": "Term",
                  "name": "Density",
                  "termType": "property",
                  "@id": "density",
                  "units": "kg / m3"
                },
                "value": 10,
                "@type": "Property"
              },
              {
                "term": {
                  "@type": "Term",
                  "name": "Energy content (lower heating value)",
                  "termType": "property",
                  "@id": "energyContentLowerHeatingValue",
                  "units": "MJ / kg"
                },
                "value": 10,
                "@type": "Property"
              },
              {
                "term": {
                  "@type": "Term",
                  "name": "Energy content (higher heating value)",
                  "termType": "property",
                  "@id": "energyContentHigherHeatingValue",
                  "units": "MJ / kg"
                },
                "value": 10,
                "@type": "Property"
              }
            ]
          },
          "value": [
            10
          ],
          "operation": {
            "@type": "Term",
            "@id": "irrigating",
            "name": "Irrigating",
            "termType": "operation",
            "units": "hour"
          }
        },
        {
          "type": "Input",
          "term": {
            "@type": "Term",
            "@id": "electricityMarketMix",
            "name": "Electricity, market mix",
            "termType": "electricity",
            "units": "kWh"
          },
          "value": [
            10
          ],
          "operation": {
            "@type": "Term",
            "@id": "dryingMachineUnspecified",
            "name": "Drying, machine unspecified",
            "termType": "operation",
            "units": "hour"
          }
        },
        {
          "type": "Input",
          "term": {
            "@type": "Term",
            "@id": "diesel",
            "name": "Diesel",
            "termType": "fuel",
            "units": "kg",
            "defaultProperties": [
              {
                "term": {
                  "@type": "Term",
                  "name": "Density",
                  "termType": "property",
                  "@id": "density",
                  "units": "kg / m3"
                },
                "value": 10,
                "@type": "Property"
              },
              {
                "term": {
                  "@type": "Term",
                  "name": "Energy content (lower heating value)",
                  "termType": "property",
                  "@id": "energyContentLowerHeatingValue",
                  "units": "MJ / kg"
                },
                "value": 10,
                "@type": "Property"
              },
              {
                "term": {
                  "@type": "Term",
                  "name": "Energy content (higher heating value)",
                  "termType": "property",
                  "@id": "energyContentHigherHeatingValue",
                  "units": "MJ / kg"
                },
                "value": 10,
                "@type": "Property"
              }
            ]
          },
          "value": [
            10
          ],
          "operation": {
            "@type": "Term",
            "@id": "dryingMachineUnspecified",
            "name": "Drying, machine unspecified",
            "termType": "operation",
            "units": "hour"
          }
        },
        {
          "type": "Input",
          "term": {
            "@type": "Term",
            "@id": "slurryAndSludgeKgN",
            "name": "Slurry and sludge (kg N)",
            "termType": "organicFertiliser",
            "units": "kg N",
            "defaultProperties": [
              {
                "term": {
                  "@type": "Term",
                  "name": "Total ammoniacal nitrogen content (as N)",
                  "termType": "property",
                  "@id": "totalAmmoniacalNitrogenContentAsN",
                  "units": "%"
                },
                "value": 10,
                "sd": 13.60711834,
                "@type": "Property"
              },
              {
                "term": {
                  "@type": "Term",
                  "name": "Phosphate content (as P2O5)",
                  "termType": "property",
                  "@id": "phosphateContentAsP2O5",
                  "units": "%"
                },
                "value": 10,
                "@type": "Property"
              },
              {
                "term": {
                  "@type": "Term",
                  "name": "Potassium content (as K2O)",
                  "termType": "property",
                  "@id": "potassiumContentAsK2O",
                  "units": "%"
                },
                "value": 10,
                "@type": "Property"
              }
            ]
          },
          "value": [
            10
          ]
        },
        {
          "type": "Input",
          "term": {
            "@type": "Term",
            "@id": "manureDryKgN",
            "name": "Manure, dry (kg N)",
            "termType": "organicFertiliser",
            "units": "kg N",
            "defaultProperties": [
              {
                "term": {
                  "@type": "Term",
                  "name": "Total ammoniacal nitrogen content (as N)",
                  "termType": "property",
                  "@id": "totalAmmoniacalNitrogenContentAsN",
                  "units": "%"
                },
                "value": 10,
                "sd": 9.770694015,
                "@type": "Property"
              },
              {
                "term": {
                  "@type": "Term",
                  "name": "Phosphate content (as P2O5)",
                  "termType": "property",
                  "@id": "phosphateContentAsP2O5",
                  "units": "%"
                },
                "value": 10,
                "@type": "Property"
              },
              {
                "term": {
                  "@type": "Term",
                  "name": "Potassium content (as K2O)",
                  "termType": "property",
                  "@id": "potassiumContentAsK2O",
                  "units": "%"
                },
                "value": 10,
                "@type": "Property"
              }
            ]
          },
          "value": [
            10
          ]
        },
        {
          "type": "Input",
          "term": {
            "@type": "Term",
            "@id": "compostKgN",
            "name": "Compost (kg N)",
            "termType": "organicFertiliser",
            "units": "kg N",
            "defaultProperties": [
              {
                "term": {
                  "@type": "Term",
                  "name": "Total ammoniacal nitrogen content (as N)",
                  "termType": "property",
                  "@id": "totalAmmoniacalNitrogenContentAsN",
                  "units": "%"
                },
                "value": 10,
                "@type": "Property"
              },
              {
                "term": {
                  "@type": "Term",
                  "name": "Phosphate content (as P2O5)",
                  "termType": "property",
                  "@id": "phosphateContentAsP2O5",
                  "units": "%"
                },
                "value": 10,
                "@type": "Property"
              },
              {
                "term": {
                  "@type": "Term",
                  "name": "Potassium content (as K2O)",
                  "termType": "property",
                  "@id": "potassiumContentAsK2O",
                  "units": "%"
                },
                "value": 10,
                "@type": "Property"
              }
            ]
          },
          "value": [
            10
          ]
        },
        {
          "type": "Input",
          "term": {
            "@type": "Term",
            "@id": "greenManureKgN",
            "name": "Green manure (kg N)",
            "termType": "organicFertiliser",
            "units": "kg N",
            "defaultProperties": [
              {
                "term": {
                  "@type": "Term",
                  "name": "Total ammoniacal nitrogen content (as N)",
                  "termType": "property",
                  "@id": "totalAmmoniacalNitrogenContentAsN",
                  "units": "%"
                },
                "value": 10,
                "@type": "Property"
              },
              {
                "term": {
                  "@type": "Term",
                  "name": "Phosphate content (as P2O5)",
                  "termType": "property",
                  "@id": "phosphateContentAsP2O5",
                  "units": "%"
                },
                "value": 10,
                "@type": "Property"
              },
              {
                "term": {
                  "@type": "Term",
                  "name": "Potassium content (as K2O)",
                  "termType": "property",
                  "@id": "potassiumContentAsK2O",
                  "units": "%"
                },
                "value": 10,
                "@type": "Property"
              }
            ]
          },
          "value": [
            10
          ]
        },
        {
          "type": "Input",
          "term": {
            "@type": "Term",
            "@id": "ureaKgN",
            "name": "Urea (kg N)",
            "termType": "inorganicFertiliser",
            "units": "kg N"
          },
          "value": [
            10
          ]
        },
        {
          "type": "Input",
          "term": {
            "@type": "Term",
            "@id": "ammoniumSulphateKgN",
            "name": "Ammonium Sulphate (kg N)",
            "termType": "inorganicFertiliser",
            "units": "kg N"
          },
          "value": [
            10
          ]
        },
        {
          "type": "Input",
          "term": {
            "@type": "Term",
            "@id": "ureaAmmoniumNitrateKgN",
            "name": "Urea Ammonium Nitrate (kg N)",
            "termType": "inorganicFertiliser",
            "units": "kg N"
          },
          "value": [
            10
          ]
        },
        {
          "type": "Input",
          "term": {
            "@type": "Term",
            "@id": "inorganicNitrogenFertiliserUnspecifiedKgN",
            "name": "Inorganic Nitrogen fertiliser, unspecified (kg N)",
            "termType": "inorganicFertiliser",
            "units": "kg N"
          },
          "value": [
            10
          ]
        },
        {
          "type": "Input",
          "term": {
            "@type": "Term",
            "@id": "calciumAmmoniumNitrateKgN",
            "name": "Calcium Ammonium Nitrate (kg N)",
            "termType": "inorganicFertiliser",
            "units": "kg N"
          },
          "value": [
            10
          ]
        },
        {
          "type": "Input",
          "term": {
            "@type": "Term",
            "@id": "anhydrousAmmoniaKgN",
            "name": "Anhydrous Ammonia (kg N)",
            "termType": "inorganicFertiliser",
            "units": "kg N"
          },
          "value": [
            10
          ]
        },
        {
          "type": "Input",
          "term": {
            "@type": "Term",
            "@id": "diammoniumPhosphateKgN",
            "name": "Diammonium Phosphate (kg N)",
            "termType": "inorganicFertiliser",
            "units": "kg N"
          },
          "value": [
            10
          ]
        },
        {
          "type": "Input",
          "term": {
            "@type": "Term",
            "@id": "herbicideUnspecifiedAi",
            "name": "Herbicide unspecified (AI)",
            "termType": "pesticideAI",
            "units": "kg active ingredient"
          },
          "value": [
            10
          ]
        },
        {
          "type": "Input",
          "term": {
            "@type": "Term",
            "@id": "fungicideUnspecifiedAi",
            "name": "Fungicide unspecified (AI)",
            "termType": "pesticideAI",
            "units": "kg active ingredient"
          },
          "value": [
            10
          ]
        },
        {
          "type": "Input",
          "term": {
            "@type": "Term",
            "@id": "insecticideUnspecifiedAi",
            "name": "Insecticide unspecified (AI)",
            "termType": "pesticideAI",
            "units": "kg active ingredient"
          },
          "value": [
            10
          ]
        }
      ],
      "practices": [
        {
          "type": "Practice",
          "term": {
            "@type": "Term",
            "@id": "irrigatedSprinklerIrrigation",
            "name": "Irrigated - Sprinkler irrigation",
            "termType": "waterRegime",
            "units": "% area"
          }
        }
      ],
      "id": "carrotroot-vilaprovinciacastillaylenspain-spain-2014",
      "site": {
        "type": "Site",
        "siteType": "cropland",
        "country": {
          "@type": "Term",
          "@id": "GADM-ESP",
          "name": "Spain",
          "termType": "region"
        },
        "id": "1"
      }
    }
  ]
}
